[gd_resource type="Theme" format=2]

[resource]

Label/colors/font_color = Color( 0.289062, 0.289062, 0.289062, 1 )
Label/colors/font_color_shadow = Color( 0.136719, 0.136719, 0.136719, 0 )
Label/constants/line_spacing = 3
Label/constants/shadow_as_outline = 0
Label/constants/shadow_offset_x = 1
Label/constants/shadow_offset_y = 1
Label/fonts/font = null
Label/styles/normal = null
_sections_unfolded = [ "Label", "Label/colors", "Label/constants" ]

