[gd_resource type="StyleBoxTexture" load_steps=2 format=2]

[ext_resource path="res://data/base/graphics/ui/toolbelt_slot_normal.png" type="Texture" id=1]

[resource]

content_margin_left = -1.0
content_margin_right = -1.0
content_margin_top = -1.0
content_margin_bottom = -1.0
texture = ExtResource( 1 )
region_rect = Rect2( 0, 0, 16, 16 )
margin_left = 4.0
margin_right = 4.0
margin_top = 4.0
margin_bottom = 4.0
expand_margin_left = 0.0
expand_margin_right = 0.0
expand_margin_top = 0.0
expand_margin_bottom = 0.0
axis_stretch_horizontal = 2
axis_stretch_vertical = 2
modulate_color = Color( 1, 1, 1, 1 )
draw_center = true
_sections_unfolded = [ "Axis Stretch", "Expand Margin", "Margin", "Modulate" ]

