[gd_scene load_steps=5 format=2]

[ext_resource path="res://data/base/graphics/ui/ButtonSelected.stylebox" type="StyleBox" id=1]
[ext_resource path="res://data/base/graphics/ui/ButtonClicked.stylebox" type="StyleBox" id=2]
[ext_resource path="res://data/base/graphics/ui/ButtonDisabled.stylebox" type="StyleBox" id=3]
[ext_resource path="res://data/base/graphics/ui/ButtonIdle.stylebox" type="StyleBox" id=4]

[node name="VideoSettings" type="Button"]

anchor_left = 0.0
anchor_top = 0.0
anchor_right = 0.0
anchor_bottom = 0.0
margin_right = 275.0
margin_bottom = 86.0
rect_min_size = Vector2( 64, 64 )
rect_pivot_offset = Vector2( 0, 0 )
focus_mode = 2
mouse_filter = 0
mouse_default_cursor_shape = 0
size_flags_horizontal = 3
size_flags_vertical = 3
custom_styles/hover = ExtResource( 1 )
custom_styles/pressed = ExtResource( 2 )
custom_styles/disabled = ExtResource( 3 )
custom_styles/normal = ExtResource( 4 )
custom_constants/hseparation = 40
toggle_mode = false
action_mode = 0
enabled_focus_mode = 2
shortcut = null
group = null
text = "JHJHG"
flat = false
align = 1
_sections_unfolded = [ "Anchor", "Focus", "Grow Direction", "Hint", "Margin", "Mouse", "Rect", "Size Flags", "Theme", "custom_colors", "custom_constants", "custom_fonts", "custom_styles" ]


