[gd_scene load_steps=2 format=2]

[ext_resource path="res://script/test/DictionariesVsSprite.gd" type="Script" id=1]

[node name="Test" type="Node" index="0"]

[node name="Dictionaries" type="Node2D" parent="." index="0"]

script = ExtResource( 1 )

[node name="Node2D" type="Node2D" parent="Dictionaries" index="0"]


